…
``` r
# install.packages("remotes")
remotes::install_github("poissonconsulting/fishbc")
```

## Demonstration

Get the curated freshwater fish of BC fish codes.

``` r
library(tibble) # for tidy printing
fishbc::freshwaterfish
#> # A tibble: 161 × 18
#>    Code  CommonName  Class Order Family Genus Species Subspecies Species2 Extant
#>    <chr> <chr>       <chr> <chr> <chr>  <chr> <chr>   <chr>      <chr>    <lgl> 
#>  1 AF    All Fish    <NA>  <NA>  <NA>   <NA>  <NA>    <NA>       <NA>     TRUE  
#>  2 SP    Fish Unide… <NA>  <NA>  <NA>   <NA>  <NA>    <NA>       <NA>     TRUE  
#>  3 SG    Sturgeon (… Acti… Acip… Acipe… Acip… <NA>    <NA>       <NA>     TRUE  
#>  4 GSG   Green Stur… Acti… Acip… Acipe… Acip… mediro… <NA>       <NA>     TRUE  
#>  5 WSG   White Stur… Acti… Acip… Acipe… Acip… transm… <NA>       <NA>     TRUE  
#>  6 SH    American S… Acti… Clup… Clupe… Alosa sapidi… <NA>       <NA>     TRUE  
#>  7 SU    Sucker (Ge… Acti… Cypr… Catos… <NA>  <NA>    <NA>       <NA>     TRUE  
#>  8 LSU   Longnose S… Acti… Cypr… Catos… Cato… catost… <NA>       <NA>     TRUE  
#>  9 BSU   Bridgelip … Acti… Cypr… Catos… Cato… columb… <NA>       <NA>     TRUE  
#> 10 WSU   White Suck… Acti… Cypr… Catos… Cato… commer… <NA>       <NA>     TRUE  
#> # ℹ 151 more rows
#> # ℹ 8 more variables: Native <lgl>, Marine <lgl>, Yellow <lgl>, Blue <lgl>,
#> #   Red <lgl>, CDCode <chr>, ABCode <chr>, Ktunaxa <chr>
```
…
