…
To install the latest development version from
[GitHub](https://github.com/poissonconsulting/fishbc)

``` r
# install.packages("remotes")
remotes::install_github("poissonconsulting/fishbc")
```

## Demonstration

``` r
library(tibble) # for tidy printing
fishbc::freshwaterfish
#> # A tibble: 161 x 16
#>    Code  CommonName Class Order Family Genus Species Subspecies Species2 Extant
#>    <chr> <chr>      <chr> <chr> <chr>  <chr> <chr>   <chr>      <chr>    <lgl> 
#>  1 AF    All Fish   <NA>  <NA>  <NA>   <NA>  <NA>    <NA>       <NA>     TRUE  
#>  2 SP    Fish Unid… <NA>  <NA>  <NA>   <NA>  <NA>    <NA>       <NA>     TRUE  
#>  3 SG    Sturgeon … Acti… Acip… Acipe… Acip… <NA>    <NA>       <NA>     TRUE  
#>  4 GSG   Green Stu… Acti… Acip… Acipe… Acip… mediro… <NA>       <NA>     TRUE  
#>  5 WSG   White Stu… Acti… Acip… Acipe… Acip… transm… <NA>       <NA>     TRUE  
#>  6 SH    American … Acti… Clup… Clupe… Alosa sapidi… <NA>       <NA>     TRUE  
#>  7 SU    Sucker (G… Acti… Cypr… Catos… <NA>  <NA>    <NA>       <NA>     TRUE  
#>  8 LSU   Longnose … Acti… Cypr… Catos… Cato… catost… <NA>       <NA>     TRUE  
#>  9 BSU   Bridgelip… Acti… Cypr… Catos… Cato… columb… <NA>       <NA>     TRUE  
#> 10 WSU   White Suc… Acti… Cypr… Catos… Cato… commer… <NA>       <NA>     TRUE  
#> # … with 151 more rows, and 6 more variables: Native <lgl>, Marine <lgl>,
#> #   Yellow <lgl>, Blue <lgl>, Red <lgl>, CDCode <chr>
```
…
